…
To download the csv file…

    if(!dir.exists(paste0(here(),"/downloads"))) dir.create(paste0(here(),"/downloads"))
    file.copy(system.file("extdata", "ralu.loci.csv", package = "LandGenCourse"),
              paste0(here(), "/downloads/ralu.loci.csv"), overwrite=FALSE)

    ## [1] FALSE

## 2. Import from csv file:

    Frogs <- read.csv(file="./downloads/ralu.loci.csv",header=TRUE)
    as_tibble(Frogs)

    ## # A tibble: 181 × 10
    ##    SiteName     Pop      A     B     C     D     E     F     G     H    
    ##    <chr>        <chr>    <chr> <chr> <chr> <chr> <chr> <chr> <chr> <chr>
    ##  1 AirplaneLake Airplane 1:1   1:1   1:1   1:1   1:2   1:1   1:1   4:5  
    ##  2 AirplaneLake Airplane 2:2   1:1   NA:NA 1:1   1:1   NA:NA 2:2   NA:NA
    ##  3 AirplaneLake Airplane 1:1   1:1   1:1   1:1   3:3   1:1   1:1   3:3  
    ##  4 AirplaneLake Airplane 1:1   1:1   NA:NA 2:2   1:2   NA:NA NA:NA NA:NA
    ##  5 AirplaneLake Airplane 1:2   1:3   1:1   1:1   1:2   1:1   1:2   4:5  
    ##  6 AirplaneLake Airplane 1:2   1:1   1:1   3:1   1:1   1:1   1:2   4:5  
    ##  7 AirplaneLake Airplane 2:2   1:3   1:1   1:1   3:3   1:1   1:1   2:3  
    ##  8 AirplaneLake Airplane 2:2   1:3   1:1   1:1   3:3   1:1   1:1   2:3  
    ##  9 AirplaneLake Airplane 3:1   1:1   1:1   1:1   1:7   1:1   1:1   3:5  
    ## 10 AirplaneLake Airplane 2:2   1:3   1:1   1:1   3:7   1:1   1:1   3:3  
    ## # ℹ 171 more rows

Adding a column that gives us Frogs$FrogID

    Frogs <- data.frame(FrogID = paste(substr(Frogs$Pop, 1, 3), row.names(Frogs), sep="."), Frogs)
    as_tibble(Frogs)

    ## # A tibble: 181 × 11
    ##    FrogID SiteName     Pop      A     B     C     D     E     F     G     H    
    ##    <chr>  <chr>        <chr>    <chr> <chr> <chr> <chr> <chr> <chr> <chr> <chr>
    ##  1 Air.1  AirplaneLake Airplane 1:1   1:1   1:1   1:1   1:2   1:1   1:1   4:5  
    ##  2 Air.2  AirplaneLake Airplane 2:2   1:1   NA:NA 1:1   1:1   NA:NA 2:2   NA:NA
    ##  3 Air.3  AirplaneLake Airplane 1:1   1:1   1:1   1:1   3:3   1:1   1:1   3:3  
    ##  4 Air.4  AirplaneLake Airplane 1:1   1:1   NA:NA 2:2   1:2   NA:NA NA:NA NA:NA
    ##  5 Air.5  AirplaneLake Airplane 1:2   1:3   1:1   1:1   1:2   1:1   1:2   4:5  
    ##  6 Air.6  AirplaneLake Airplane 1:2   1:1   1:1   3:1   1:1   1:1   1:2   4:5  
    ##  7 Air.7  AirplaneLake Airplane 2:2   1:3   1:1   1:1   3:3   1:1   1:1   2:3  
    ##  8 Air.8  AirplaneLake Airplane 2:2   1:3   1:1   1:1   3:3   1:1   1:1   2:3  
    ##  9 Air.9  AirplaneLake Airplane 3:1   1:1   1:1   1:1   1:7   1:1   1:1   3:5  
    ## 10 Air.10 AirplaneLake Airplane 2:2   1:3   1:1   1:1   3:7   1:1   1:1   3:3  
    ## # ℹ 171 more rows
…
## 4. View info stored in ‘genind’ object

Pull out subsets of info:

    as_tibble(Frogs.genind@tab)

    ## # A tibble: 181 × 39
    ##      A.1   A.2   A.3   B.1   B.3   B.2   B.4   C.1   C.2   C.4   C.5   D.1   D.2
    ##    <int> <int> <int> <int> <int> <int> <int> <int> <int> <int> <int> <int> <int>
    ##  1     2     0     0     2     0     0     0     2     0     0     0     2     0
    ##  2     0     2     0     2     0     0     0    NA    NA    NA    NA     2     0
    ##  3     2     0     0     2     0     0     0     2     0     0     0     2     0
    ##  4     2     0     0     2     0     0     0    NA    NA    NA    NA     0     2
    ##  5     1     1     0     1     1     0     0     2     0     0     0     2     0
    ##  6     1     1     0     2     0     0     0     2     0     0     0     1     0
    ##  7     0     2     0     1     1     0     0     2     0     0     0     2     0
    ##  8     0     2     0     1     1     0     0     2     0     0     0     2     0
    ##  9     1     0     1     2     0     0     0     2     0     0     0     2     0
    ## 10     0     2     0     1     1     0     0     2     0     0     0     2     0
    ## # ℹ 171 more rows
    ## # ℹ 26 more variables: D.3 <int>, D.4 <int>, E.1 <int>, E.2 <int>, E.3 <int>,
    ## #   E.7 <int>, E.6 <int>, E.8 <int>, E.5 <int>, E.4 <int>, E.10 <int>,
    ## #   F.1 <int>, F.2 <int>, F.3 <int>, G.1 <int>, G.2 <int>, G.3 <int>,
    ## #   G.5 <int>, H.4 <int>, H.5 <int>, H.3 <int>, H.2 <int>, H.1 <int>,
    ## #   H.6 <int>, H.8 <int>, H.7 <int>
…
Do this section on your own!

Download file:

    file.copy(system.file("extdata", "pulsatilla_genotypes.csv", package = "LandGenCourse"),
              paste0(here(), "/downloads/pulsatilla_genotypes.csv"), overwrite=FALSE)

    ## [1] FALSE

Import from csv as data frame:

    Frogs <- read.csv(paste0(here(), "/downloads/pulsatilla_genotypes.csv"), header=TRUE)
    as_tibble(Frogs)

    ## # A tibble: 536 × 19
    ##       ID OffID Population        X        Y loc1_a loc1_b loc2_a loc2_b loc3_a
    ##    <int> <int> <chr>         <dbl>    <dbl>  <int>  <int>  <int>  <int>  <int>
    ##  1    62     0 A21        4426941. 5427173.    340    340    422    422    413
    ##  2    64     0 A21        4426933. 5427178.    334    334    424    424    417
    ##  3    65     0 A21        4426936. 5427173.    338    340    417    422    417
    ##  4    66     0 A21        4426937. 5427174.    340    344    422    422    411
    ##  5    68     0 A21        4426934. 5427171.    336    342    417    422    423
    ##  6    69     0 A21        4426933. 5427166.    336    346    422    422    417
    ##  7    75     0 A21        4426925. 5427175.    340    340    422    422    415
    ##  8    76     0 A21        4426925. 5427173.    338    340    417    422    413
    ##  9    77     0 A21        4426922. 5427174.    344    352    422    422    415
    ## 10    78     0 A21        4426922. 5427174.    342    352    417    424    425
    ## # ℹ 526 more rows
    ## # ℹ 9 more variables: loc3_b <int>, loc4_a <int>, loc4_b <int>, loc5_a <int>,
    ## #   loc5_b <int>, loc6_a <int>, loc6_b <int>, loc7_a <int>, loc7_b <int>
…
Here, there is a problem because the genind object has 14 loci, but
really this should be only 7 loci.

Going back to the Frogs dataframe and combining loci before creating the
genind object

    as_tibble(Frogs)

    ## # A tibble: 536 × 19
    ##       ID OffID Population        X        Y loc1_a loc1_b loc2_a loc2_b loc3_a
    ##    <int> <int> <chr>         <dbl>    <dbl>  <int>  <int>  <int>  <int>  <int>
    ##  1    62     0 A21        4426941. 5427173.    340    340    422    422    413
    ##  2    64     0 A21        4426933. 5427178.    334    334    424    424    417
    ##  3    65     0 A21        4426936. 5427173.    338    340    417    422    417
    ##  4    66     0 A21        4426937. 5427174.    340    344    422    422    411
    ##  5    68     0 A21        4426934. 5427171.    336    342    417    422    423
    ##  6    69     0 A21        4426933. 5427166.    336    346    422    422    417
    ##  7    75     0 A21        4426925. 5427175.    340    340    422    422    415
    ##  8    76     0 A21        4426925. 5427173.    338    340    417    422    413
    ##  9    77     0 A21        4426922. 5427174.    344    352    422    422    415
    ## 10    78     0 A21        4426922. 5427174.    342    352    417    424    425
    ## # ℹ 526 more rows
    ## # ℹ 9 more variables: loc3_b <int>, loc4_a <int>, loc4_b <int>, loc5_a <int>,
    ## #   loc5_b <int>, loc6_a <int>, loc6_b <int>, loc7_a <int>, loc7_b <int>

I’ll make a new data frame with the first 5 columns, then paste
loc1\_a:loc1\_b, etc.

    Frogs <- data.frame(Frogs[,1:5],loc1 = paste(Frogs$loc1_a, Frogs$loc1_b, sep=":"), loc2 = paste(Frogs$loc2_a, Frogs$loc2_b, sep=":"), loc3 = paste(Frogs$loc3_a, Frogs$loc3_b, sep=":"), loc4 = paste(Frogs$loc4_a, Frogs$loc4_b, sep=":"), loc5 = paste(Frogs$loc5_a, Frogs$loc5_b, sep=":"), loc6 = paste(Frogs$loc6_a, Frogs$loc6_b, sep=":"), loc7 = paste(Frogs$loc7_a, Frogs$loc7_b, sep=":"))
    as_tibble(Frogs)

    ## # A tibble: 536 × 12
    ##       ID OffID Population        X        Y loc1   loc2  loc3  loc4  loc5  loc6 
    ##    <int> <int> <chr>         <dbl>    <dbl> <chr>  <chr> <chr> <chr> <chr> <chr>
    ##  1    62     0 A21        4426941. 5427173. 340:3… 422:… 413:… 446:… 121:… 155:…
    ##  2    64     0 A21        4426933. 5427178. 334:3… 424:… 417:… 444:… 122:… 155:…
    ##  3    65     0 A21        4426936. 5427173. 338:3… 417:… 417:… 446:… 135:… 153:…
    ##  4    66     0 A21        4426937. 5427174. 340:3… 422:… 411:… 446:… 122:… 157:…
    ##  5    68     0 A21        4426934. 5427171. 336:3… 417:… 423:… 448:… 119:… 155:…
    ##  6    69     0 A21        4426933. 5427166. 336:3… 422:… 417:… 444:… 122:… 155:…
    ##  7    75     0 A21        4426925. 5427175. 340:3… 422:… 415:… 442:… 121:… 152:…
    ##  8    76     0 A21        4426925. 5427173. 338:3… 417:… 413:… 446:… 126:… 155:…
    ##  9    77     0 A21        4426922. 5427174. 344:3… 422:… 415:… 446:… 121:… 155:…
    ## 10    78     0 A21        4426922. 5427174. 342:3… 417:… 425:… 446:… 121:… 157:…
    ## # ℹ 526 more rows
    ## # ℹ 1 more variable: loc7 <chr>
…
