…
# 6.4 Exercise

    Flowers <- read.csv("./downloads/pulsatilla_genotypes.csv", header=TRUE)
    as_tibble(Flowers)

    ## # A tibble: 536 × 19
    ##       ID OffID Population        X        Y loc1_a loc1_b loc2_a loc2_b loc3_a
    ##    <int> <int> <chr>         <dbl>    <dbl>  <int>  <int>  <int>  <int>  <int>
    ##  1    62     0 A21        4426941. 5427173.    340    340    422    422    413
    ##  2    64     0 A21        4426933. 5427178.    334    334    424    424    417
    ##  3    65     0 A21        4426936. 5427173.    338    340    417    422    417
    ##  4    66     0 A21        4426937. 5427174.    340    344    422    422    411
    ##  5    68     0 A21        4426934. 5427171.    336    342    417    422    423
    ##  6    69     0 A21        4426933. 5427166.    336    346    422    422    417
    ##  7    75     0 A21        4426925. 5427175.    340    340    422    422    415
    ##  8    76     0 A21        4426925. 5427173.    338    340    417    422    413
    ##  9    77     0 A21        4426922. 5427174.    344    352    422    422    415
    ## 10    78     0 A21        4426922. 5427174.    342    352    417    424    425
    ## # ℹ 526 more rows
    ## # ℹ 9 more variables: loc3_b <int>, loc4_a <int>, loc4_b <int>, loc5_a <int>,
    ## #   loc5_b <int>, loc6_a <int>, loc6_b <int>, loc7_a <int>, loc7_b <int>

## Filter offspring (seeds) from the dataset

    Flowers <- filter(Flowers, OffID==0)
    as_tibble(Flowers)

    ## # A tibble: 221 × 19
    ##       ID OffID Population        X        Y loc1_a loc1_b loc2_a loc2_b loc3_a
    ##    <int> <int> <chr>         <dbl>    <dbl>  <int>  <int>  <int>  <int>  <int>
    ##  1    62     0 A21        4426941. 5427173.    340    340    422    422    413
    ##  2    64     0 A21        4426933. 5427178.    334    334    424    424    417
    ##  3    65     0 A21        4426936. 5427173.    338    340    417    422    417
    ##  4    66     0 A21        4426937. 5427174.    340    344    422    422    411
    ##  5    68     0 A21        4426934. 5427171.    336    342    417    422    423
    ##  6    69     0 A21        4426933. 5427166.    336    346    422    422    417
    ##  7    75     0 A21        4426925. 5427175.    340    340    422    422    415
    ##  8    76     0 A21        4426925. 5427173.    338    340    417    422    413
    ##  9    77     0 A21        4426922. 5427174.    344    352    422    422    415
    ## 10    78     0 A21        4426922. 5427174.    342    352    417    424    425
    ## # ℹ 211 more rows
    ## # ℹ 9 more variables: loc3_b <int>, loc4_a <int>, loc4_b <int>, loc5_a <int>,
    ## #   loc5_b <int>, loc6_a <int>, loc6_b <int>, loc7_a <int>, loc7_b <int>

## Count the number of individuals in each pop

    table(Flowers$Population)

    ## 
    ##  A03  A21  A25  A26  A41  A45 G05a 
    ##   42   21   56   21   14   22   45

Dataframe with the first 5 columns, then paste loc1\_a:loc1\_b, etc.

    Flowers <- data.frame(Flowers[,1:5],loc1 = paste(Flowers$loc1_a, Flowers$loc1_b, sep=":"), loc2 = paste(Flowers$loc2_a, Flowers$loc2_b, sep=":"), loc3 = paste(Flowers$loc3_a, Flowers$loc3_b, sep=":"), loc4 = paste(Flowers$loc4_a, Flowers$loc4_b, sep=":"), loc5 = paste(Flowers$loc5_a, Flowers$loc5_b, sep=":"), loc6 = paste(Flowers$loc6_a, Flowers$loc6_b, sep=":"), loc7 = paste(Flowers$loc7_a, Flowers$loc7_b, sep=":"))
    as_tibble(Flowers)

    ## # A tibble: 221 × 12
    ##       ID OffID Population        X        Y loc1   loc2  loc3  loc4  loc5  loc6 
    ##    <int> <int> <chr>         <dbl>    <dbl> <chr>  <chr> <chr> <chr> <chr> <chr>
    ##  1    62     0 A21        4426941. 5427173. 340:3… 422:… 413:… 446:… 121:… 155:…
    ##  2    64     0 A21        4426933. 5427178. 334:3… 424:… 417:… 444:… 122:… 155:…
    ##  3    65     0 A21        4426936. 5427173. 338:3… 417:… 417:… 446:… 135:… 153:…
    ##  4    66     0 A21        4426937. 5427174. 340:3… 422:… 411:… 446:… 122:… 157:…
    ##  5    68     0 A21        4426934. 5427171. 336:3… 417:… 423:… 448:… 119:… 155:…
    ##  6    69     0 A21        4426933. 5427166. 336:3… 422:… 417:… 444:… 122:… 155:…
    ##  7    75     0 A21        4426925. 5427175. 340:3… 422:… 415:… 442:… 121:… 152:…
    ##  8    76     0 A21        4426925. 5427173. 338:3… 417:… 413:… 446:… 126:… 155:…
    ##  9    77     0 A21        4426922. 5427174. 344:3… 422:… 415:… 446:… 121:… 155:…
    ## 10    78     0 A21        4426922. 5427174. 342:3… 417:… 425:… 446:… 121:… 157:…
    ## # ℹ 211 more rows
    ## # ℹ 1 more variable: loc7 <chr>
…
